{
    "config": {
        "drop_remainder": false,
        "category": "ML",
        "mode": "classification",
        "batch_size": 32,
        "split_random": false,
        "val_fraction": 0.2,
        "indices": null,
        "train_fraction": 0.7,
        "save": false,
        "allow_nan_labels": 0,
        "nan_filler": null,
        "seed": 313,
        "input_features": [
            "season",
            "T  (\u2103)",
            "pH",
            "TDS (mg/L)",
            "DO (mg/L)",
            "TN (mg/L)"
        ],
        "output_features": [
            "TEM"
        ],
        "intervals": null,
        "verbosity": 0,
        "teacher_forcing": false,
        "dataset_args": {},
        "ts_args": {
            "lookback": 1,
            "forecast_len": 1,
            "forecast_step": 0,
            "known_future_inputs": false,
            "input_steps": 1,
            "output_steps": 1
        },
        "x_transformer_": {
            "transformers_": {
                "5_vast_0": {
                    "transformer": {
                        "vast": {
                            "params": {
                                "feature_dim": "2d",
                                "axis": 0
                            },
                            "config": {
                                "data_dim_": 2,
                                "mean_": [
                                    29.84110429447853
                                ],
                                "var_": [
                                    58.588678535134946
                                ],
                                "scale_": [
                                    7.654324172331281
                                ]
                            }
                        }
                    },
                    "shape": [
                        326,
                        6
                    ],
                    "method": "vast",
                    "features": [
                        "T  (\u2103)"
                    ],
                    "replace_zeros": false,
                    "replace_zeros_with": 1,
                    "treat_negatives": false,
                    "kwargs": {}
                },
                "5_scale_1": {
                    "transformer": {
                        "scale": {
                            "params": {
                                "copy": true,
                                "with_mean": false,
                                "with_std": true
                            },
                            "config": {
                                "scale_": [
                                    1.580222951599676
                                ],
                                "n_samples_seen_": 326,
                                "mean_": [
                                    7.135889570552147
                                ],
                                "var_": [
                                    2.497104576762392
                                ],
                                "n_features_in_": 1
                            }
                        }
                    },
                    "shape": [
                        326,
                        6
                    ],
                    "method": "scale",
                    "features": [
                        "pH"
                    ],
                    "replace_zeros": false,
                    "replace_zeros_with": 1,
                    "treat_negatives": false,
                    "kwargs": {}
                },
                "5_center_2": {
                    "transformer": {
                        "center": {
                            "params": {
                                "feature_dim": "2d",
                                "axis": 0
                            },
                            "config": {
                                "data_dim_": 2,
                                "mean_": [
                                    1082.0398773006134
                                ]
                            }
                        }
                    },
                    "shape": [
                        326,
                        6
                    ],
                    "method": "center",
                    "features": [
                        "TDS (mg/L)"
                    ],
                    "replace_zeros": false,
                    "replace_zeros_with": 1,
                    "treat_negatives": false,
                    "kwargs": {}
                },
                "5_sqrt_3": {
                    "transformer": {
                        "sqrt": {
                            "params": {},
                            "config": {
                                "data_dim_": 2
                            }
                        }
                    },
                    "shape": [
                        326,
                        6
                    ],
                    "method": "sqrt",
                    "features": [
                        "DO (mg/L)"
                    ],
                    "replace_zeros": false,
                    "replace_zeros_with": 1,
                    "treat_negatives": false,
                    "kwargs": {}
                },
                "5_pareto_4": {
                    "transformer": {
                        "pareto": {
                            "params": {
                                "feature_dim": "2d",
                                "axis": 0
                            },
                            "config": {
                                "data_dim_": 2,
                                "mean_": [
                                    5.481871165644172
                                ],
                                "var_": [
                                    20.542815210395577
                                ],
                                "scale_": [
                                    4.532418251926401
                                ]
                            }
                        }
                    },
                    "shape": [
                        326,
                        6
                    ],
                    "method": "pareto",
                    "features": [
                        "TN (mg/L)"
                    ],
                    "replace_zeros": false,
                    "replace_zeros_with": 1,
                    "treat_negatives": false,
                    "kwargs": {}
                }
            },
            "feature_names": [
                "season",
                "T  (\u2103)",
                "pH",
                "TDS (mg/L)",
                "DO (mg/L)",
                "TN (mg/L)"
            ],
            "config": [
                {
                    "method": "vast",
                    "features": [
                        "T  (\u2103)"
                    ]
                },
                {
                    "method": "scale",
                    "features": [
                        "pH"
                    ]
                },
                {
                    "method": "center",
                    "features": [
                        "TDS (mg/L)"
                    ]
                },
                {
                    "method": "sqrt",
                    "features": [
                        "DO (mg/L)"
                    ]
                },
                {
                    "method": "pareto",
                    "features": [
                        "TN (mg/L)"
                    ]
                }
            ],
            "is_numpy_": true,
            "is_dict_": false,
            "is_list_": false
        },
        "model": {
            "LGBMClassifier": {
                "random_state": 313,
                "verbosity": 0
            }
        },
        "x_transformation": [
            {
                "method": "vast",
                "features": [
                    "T  (\u2103)"
                ]
            },
            {
                "method": "scale",
                "features": [
                    "pH"
                ]
            },
            {
                "method": "center",
                "features": [
                    "TDS (mg/L)"
                ]
            },
            {
                "method": "sqrt",
                "features": [
                    "DO (mg/L)"
                ]
            },
            {
                "method": "pareto",
                "features": [
                    "TN (mg/L)"
                ]
            }
        ],
        "y_transformation": null,
        "composite": false,
        "lr": 0.001,
        "optimizer": "Adam",
        "loss": "mse",
        "quantiles": null,
        "epochs": 14,
        "min_val_loss": 0.0001,
        "patience": 100,
        "shuffle": true,
        "save_model": true,
        "backend": "tensorflow",
        "buffer_size": 100,
        "batches_per_epoch": null,
        "steps_per_epoch": null,
        "monitor": null,
        "batches": "2d",
        "prefix": null,
        "kmodel": null,
        "cross_validator": null,
        "wandb_config": null,
        "val_metric": "accuracy",
        "model_name_": "LGBMClassifier",
        "is_custom_model_": false
    },
    "method": null,
    "classes_": [
        0,
        1
    ],
    "num_classes_": 2,
    "is_binary_": true,
    "is_multiclass_": false,
    "is_multilabel_": false
}